Master Thesis PAP -‘Job Creation in Colombian Cities: An analysis on economic, social, demographic, political, and geospatial factors’
…
NA

3rd Qu.:2021-06-01 00:00:00.00

3rd Qu.: 38011

NA

NA

Max. :2023-07-01 00:00:00.00

Max. :10955436

## # A tibble: 25 × 4
##    city    Concepto date                workers
##    <chr>   <chr>    <dttm>                <dbl>
##  1 ARMENIA Ocupados 2015-01-01 00:00:00 118295 
##  2 ARMENIA Ocupados 2015-02-01 00:00:00 118767.
##  3 ARMENIA Ocupados 2015-03-01 00:00:00 118854.
##  4 ARMENIA Ocupados 2015-04-01 00:00:00 120190.
##  5 ARMENIA Ocupados 2015-05-01 00:00:00 120125 
##  6 ARMENIA Ocupados 2015-06-01 00:00:00 120537.
##  7 ARMENIA Ocupados 2015-07-01 00:00:00 118665.
##  8 ARMENIA Ocupados 2015-08-01 00:00:00 120623.
##  9 ARMENIA Ocupados 2015-09-01 00:00:00 122093.
## 10 ARMENIA Ocupados 2015-10-01 00:00:00 122590 
## # ℹ 15 more rows
…
